<?xml version="1.0" encoding="UTF-8" standalone="no"?>
<svg width="28px" height="16px" viewBox="0 0 28 16" version="1.1" xmlns="http://www.w3.org/2000/svg" xmlns:xlink="http://www.w3.org/1999/xlink">
    <!-- Generator: Sketch 3.6.1 (26313) - http://www.bohemiancoding.com/sketch -->
    <title>icn_show password</title>
    <desc>Created with Sketch.</desc>
    <defs></defs>
    <g id="Page-1" stroke="none" stroke-width="1" fill="none" fill-rule="evenodd">
        <g id="Elements" transform="translate(-501.000000, -302.000000)" fill="#4A4A4A">
            <g id="icn_show-password" transform="translate(501.000000, 269.000000)">
                <path d="M0.818518392,40.4231026 C2.19875981,42.1617241 2.73704255,39.5650277 4.61894244,37.8959615 C6.50084232,36.2268953 9.01372214,36.1175006 7.63348072,34.3788791 C6.2532393,32.6402576 3.60875128,32.5838719 1.7268514,34.2529382 C-0.155048486,35.9220044 -0.561723024,38.6844811 0.818518392,40.4231026 Z M27.2360495,39.9515212 C25.9478242,41.5878709 25.4454269,39.1439213 23.6889871,37.5730355 C21.9325472,36.0021496 19.5871927,35.89919 20.875418,34.2628403 C22.1636433,32.6264907 24.6318321,32.5734218 26.388272,34.1443076 C28.1447119,35.7151935 28.5242748,38.3151716 27.2360495,39.9515212 Z M22.245777,47.1435165 C19.4853169,48.9113975 17.9419827,47.059668 16.6467639,44.7621062 C15.3515451,42.4645444 15.6196101,39.7578858 17.2455038,38.716615 C18.8713975,37.6753442 21.239427,38.6937693 22.5346458,40.9913311 C23.8298646,43.2888929 25.006237,45.3756356 22.245777,47.1435165 Z M19.7336452,46.3008683 C18.8451583,46.3008683 18.1248973,45.5641305 18.1248973,44.6553184 C18.1248973,43.7465062 18.8451583,43.0097685 19.7336452,43.0097685 C20.622132,43.0097685 21.342393,43.7465062 21.342393,44.6553184 C21.342393,45.5641305 20.622132,46.3008683 19.7336452,46.3008683 Z M19.7336452,45.1254755 C19.9874986,45.1254755 20.1932874,44.914979 20.1932874,44.6553184 C20.1932874,44.3956578 19.9874986,44.1851613 19.7336452,44.1851613 C19.4797918,44.1851613 19.2740029,44.3956578 19.2740029,44.6553184 C19.2740029,44.914979 19.4797918,45.1254755 19.7336452,45.1254755 Z M5.66257239,47.1185025 C8.42303245,48.8863835 9.96636664,47.0346541 11.2615854,44.7370923 C12.5568042,42.4395305 12.2887393,39.7328718 10.6628456,38.691601 C9.03695187,37.6503302 6.66892232,38.6687553 5.37370353,40.9663171 C4.07848474,43.2638789 2.90211232,45.3506216 5.66257239,47.1185025 Z M8.1747042,46.2758543 C9.06319109,46.2758543 9.78345203,45.5391165 9.78345203,44.6303044 C9.78345203,43.7214923 9.06319109,42.9847545 8.1747042,42.9847545 C7.28621731,42.9847545 6.56595637,43.7214923 6.56595637,44.6303044 C6.56595637,45.5391165 7.28621731,46.2758543 8.1747042,46.2758543 Z M8.17470417,45.1004615 C7.92085076,45.1004615 7.71506191,44.889965 7.71506191,44.6303044 C7.71506191,44.3706438 7.92085076,44.1601473 8.17470417,44.1601473 C8.42855757,44.1601473 8.63434642,44.3706438 8.63434642,44.6303044 C8.63434642,44.889965 8.42855757,45.1004615 8.17470417,45.1004615 Z M13.9514626,49 C14.475069,49 14.9682222,48.333962 14.9682222,47.7229959 C14.9682222,47.1120297 14.8744869,46.7874959 13.9514626,46.7874959 C13.0284383,46.7874959 12.8924185,47.1120297 12.8924185,47.7229959 C12.8924185,48.333962 13.4278561,49 13.9514626,49 Z"></path>
            </g>
        </g>
    </g>
</svg>